^C:\USERS\ETHAN\DOCUMENTS\ABCBANK_WINDOWS\BANKCLIENT\DEBUG\BANKCLIENT.EXE.EMBED.MANIFEST.RES|C:\USERS\ETHAN\DOCUMENTS\ABCBANK_WINDOWS\BANKCLIENT\DEBUG\JAPPLICATION.OBJ|C:\USERS\ETHAN\DOCUMENTS\ABCBANK_WINDOWS\BANKCLIENT\DEBUG\JBUTTON.OBJ|C:\USERS\ETHAN\DOCUMENTS\ABCBANK_WINDOWS\BANKCLIENT\DEBUG\JEVENT.OBJ|C:\USERS\ETHAN\DOCUMENTS\ABCBANK_WINDOWS\BANKCLIENT\DEBUG\JWINDOW.OBJ|C:\USERS\ETHAN\DOCUMENTS\ABCBANK_WINDOWS\BANKCLIENT\DEBUG\JWINDOWBASE.OBJ|C:\USERS\ETHAN\DOCUMENTS\ABCBANK_WINDOWS\BANKCLIENT\DEBUG\MAIN.OBJ
C:\WINDOWS\GLOBALIZATION\SORTING\SORTDEFAULT.NLS
C:\PROGRAM FILES\MICROSOFT SDKS\WINDOWS\V7.0A\LIB\KERNEL32.LIB
C:\PROGRAM FILES\MICROSOFT SDKS\WINDOWS\V7.0A\LIB\USER32.LIB
C:\PROGRAM FILES\MICROSOFT SDKS\WINDOWS\V7.0A\LIB\GDI32.LIB
C:\PROGRAM FILES\MICROSOFT SDKS\WINDOWS\V7.0A\LIB\WINSPOOL.LIB
C:\PROGRAM FILES\MICROSOFT SDKS\WINDOWS\V7.0A\LIB\COMDLG32.LIB
C:\PROGRAM FILES\MICROSOFT SDKS\WINDOWS\V7.0A\LIB\ADVAPI32.LIB
C:\PROGRAM FILES\MICROSOFT SDKS\WINDOWS\V7.0A\LIB\SHELL32.LIB
C:\PROGRAM FILES\MICROSOFT SDKS\WINDOWS\V7.0A\LIB\OLE32.LIB
C:\PROGRAM FILES\MICROSOFT SDKS\WINDOWS\V7.0A\LIB\OLEAUT32.LIB
C:\PROGRAM FILES\MICROSOFT SDKS\WINDOWS\V7.0A\LIB\UUID.LIB
C:\PROGRAM FILES\MICROSOFT SDKS\WINDOWS\V7.0A\LIB\ODBC32.LIB
C:\PROGRAM FILES\MICROSOFT SDKS\WINDOWS\V7.0A\LIB\ODBCCP32.LIB
C:\USERS\ETHAN\DOCUMENTS\ABCBANK_WINDOWS\BANKCLIENT\DEBUG\BANKCLIENT.EXE.EMBED.MANIFEST.RES
C:\USERS\ETHAN\DOCUMENTS\ABCBANK_WINDOWS\BANKCLIENT\DEBUG\JAPPLICATION.OBJ
C:\USERS\ETHAN\DOCUMENTS\ABCBANK_WINDOWS\BANKCLIENT\DEBUG\JBUTTON.OBJ
C:\USERS\ETHAN\DOCUMENTS\ABCBANK_WINDOWS\BANKCLIENT\DEBUG\JEVENT.OBJ
C:\USERS\ETHAN\DOCUMENTS\ABCBANK_WINDOWS\BANKCLIENT\DEBUG\JWINDOW.OBJ
C:\USERS\ETHAN\DOCUMENTS\ABCBANK_WINDOWS\BANKCLIENT\DEBUG\JWINDOWBASE.OBJ
C:\USERS\ETHAN\DOCUMENTS\ABCBANK_WINDOWS\BANKCLIENT\DEBUG\MAIN.OBJ
C:\WINDOWS\SYSTEM32\TZRES.DLL
C:\USERS\ETHAN\DOCUMENTS\ABCBANK_WINDOWS\BANKCLIENT\DEBUG\BANKCLIENT.ILK
C:\USERS\ETHAN\DOCUMENTS\ABCBANK_WINDOWS\BANKCLIENT\DEBUG\BANKCLIENT.EXE
C:\USERS\ETHAN\DOCUMENTS\ABCBANK_WINDOWS\BANKCLIENT\DEBUG\BANKCLIENT.PDB
C:\PROGRAM FILES\MICROSOFT VISUAL STUDIO 10.0\VC\LIB\MSVCPRTD.LIB
C:\PROGRAM FILES\MICROSOFT VISUAL STUDIO 10.0\VC\LIB\MSVCRTD.LIB
C:\PROGRAM FILES\MICROSOFT VISUAL STUDIO 10.0\VC\LIB\OLDNAMES.LIB
